…
- Residual = $y - \hat{y}$
- Corresponds to $\epsilon$ from $y = f(\overrightarrow{x}) + \epsilon$
- For our example instructor: $y - \hat{y} = 3.5 - 4.22 = -0.72$
- With linear regression, sometimes you'll obtain positive residuals and other times negative.  
In linear regression, they are on average 0.

**Computing all predicted values**

```
# Get information on each point

model <- lm(formula = score ~ age, data = evals)
get_regression_points(model)

# A tibble: 463 x 5      
      ID  score age   score_hat residual
<int> <dbl> <dbl>     <dbl>    <dbl> 
1     1   4.7    36      4.25    0.452
2     2   4.1    36      4.25   -0.148
3     3   3.9    36      4.25   -0.348
4     4   4.8    36      4.25    0.552
5     5   4.6    59      4.11    0.488
6     6   4.3    59      4.11    0.188
7     7   2.8    59      4.11   -1.31
8     8   4.1    51      4.16   -0.059
9     9   3.4    51      4.16   -0.759
10    10  4.5    40      4.22    0.276
# ... with 453 more rows
```
…
